{
  "headers": {
    
  },
  "attachments": {
    
  },
  "body": {
    "FindPersonResponse": {
      "FindPersonResult": {
        "Name": "Xavier,Joe I.",
        "SSN": "640-94-6892",
        "DOB": "2013-12-12",
        "Home": {
          "Street": "6894 Clinton Place",
          "City": "Islip",
          "State": "FL",
          "Zip": "42619"
        },
        "Office": {
          "Street": "6764 First Drive",
          "City": "Pueblo",
          "State": "DE",
          "Zip": "73302"
        },
        "FavoriteColors": {
          "FavoriteColorsItem": "Orange",
          "FavoriteColorsItem": "Red"
        },
        "Age": "6"
      }
    }
  }
}